{
  "heroSlider": [
    {
      "image": "http://lorempixel.com/1920/1080/sport/",
      "title": "Adidas",
      "caption": "First never follows",
      "buttonLabel": "",
      "url": "https://google.com/1",
      "thumbnail": {
        "image": "http://lorempixel.com/600/400/nature/",
        "userImage": "http://lorempixel.com/100/100/people/",
        "title": "Lorem ipsum dolor sit amet",
        "text": "Lorem ipsum dolor sit amet, consectetur adipiscing elit, sed do eiusmod tempor incididunt ut labore"
      }
    },
    {
      "image": "http://lorempixel.com/1920/1080/sport/",
      "title": "Nike",
      "caption": "Just do it",
      "buttonLabel": "",
      "url": "https://google.com/2",
      "thumbnail": {
        "image": "http://lorempixel.com/600/400/nature/",
        "userImage": "http://lorempixel.com/100/100/people/",
        "title": "Lorem ipsum dolor sit amet",
        "text": "Lorem ipsum dolor sit amet, consectetur adipiscing elit, sed do eiusmod tempor incididunt ut labore"
      }
    },
    {
      "image": "http://lorempixel.com/1920/1080/sport/",
      "title": "Apple",
      "caption": "Think different",
      "buttonLabel": "",
      "url": "https://google.com/3",
      "thumbnail": {
        "image": "http://lorempixel.com/600/400/nature/",
        "userImage": "http://lorempixel.com/100/100/people/",
        "title": "Lorem ipsum dolor sit amet",
        "text": "Lorem ipsum dolor sit amet, consectetur adipiscing elit, sed do eiusmod tempor incididunt ut labore"
      }
    },
    {
      "image": "http://lorempixel.com/1920/1080/sport/",
      "title": "L'Oréal",
      "caption": "Because You're Worth It",
      "buttonLabel": "",
      "url": "https://google.com/4",
      "thumbnail": {
        "image": "http://lorempixel.com/600/400/nature/",
        "userImage": "http://lorempixel.com/100/100/people/",
        "title": "Lorem ipsum dolor sit amet",
        "text": "Lorem ipsum dolor sit amet, consectetur adipiscing elit, sed do eiusmod tempor incididunt ut labore"
      }
    }
  ],
  "imageSlider": [
  	{
    "image": "http://lorempixel.com/1600/800/technics/"
    },
    {
    "image": "http://lorempixel.com/1600/800/technics/"
    },
    {
    "image": "http://lorempixel.com/1600/800/technics/"
    },
    {
      "image": "http://lorempixel.com/1600/800/technics/"
    }
  ],
  "textSlider": [
    {
	  "text": "Stay positive and happy. Work hard and don't give up hope. Be open to criticism and keep learning. Surround yourself with happy, warm and genuine people.",
      "releaseDate": "2017-02-08T22:18:08.262Z",
      "author": "Tena Desae"
    },
    {
      "text": "Success is no accident. It is hard work, perseverance, learning, studying, sacrifice and most of all, love of what you are doing or learning to do.",
      "releaseDate": "1989-02-08T22:18:08.262Z",
      "author": "Pele"
    },
    {
      "text": "Start by doing what’s necessary, then what’s possible; and suddenly you are doing the impossible.",
      "releaseDate": "1090-02-08T22:18:08.262Z",
      "author": "Saint Francis"
    }
  ]
}